{"type":"animations","src":"mob001.png","width":116,"height":104,"esquerda":
	{"loops":0,"length":2,"w":26,"h":27,"objects":[
		{"id":0,"delay":10,"x":24,"y":78,"w":26,"h":26,"gx":1,"gy":0,"gz":0},
		{"id":1,"delay":10,"x":52,"y":51,"w":26,"h":27,"gx":0,"gy":0,"gz":0}]},
	"parado":
	{"loops":0,"length":7,"w":30,"h":28,"objects":[
		{"id":0,"delay":10,"x":24,"y":0,"w":24,"h":23,"gx":0,"gy":-2,"gz":0},
		{"id":1,"delay":10,"x":0,"y":23,"w":24,"h":24,"gx":0,"gy":-2,"gz":0},
		{"id":2,"delay":10,"x":24,"y":23,"w":28,"h":28,"gx":0,"gy":-4,"gz":0},
		{"id":3,"delay":10,"x":52,"y":23,"w":28,"h":27,"gx":0,"gy":-4,"gz":0},
		{"id":4,"delay":10,"x":80,"y":23,"w":30,"h":26,"gx":0,"gy":-3,"gz":0},
		{"id":5,"delay":10,"x":24,"y":51,"w":28,"h":27,"gx":0,"gy":-3,"gz":0},
		{"id":6,"delay":10,"x":24,"y":51,"w":28,"h":27,"gx":0,"gy":-3,"gz":0}]},
	"direita":
	{"loops":0,"length":4,"w":24,"h":28,"objects":[
		{"id":0,"delay":10,"x":0,"y":47,"w":20,"h":28,"gx":0,"gy":-4,"gz":0},
		{"id":1,"delay":10,"x":0,"y":75,"w":24,"h":22,"gx":1,"gy":-4,"gz":0},
		{"id":2,"delay":10,"x":52,"y":78,"w":24,"h":23,"gx":-1,"gy":-4,"gz":0},
		{"id":3,"delay":10,"x":78,"y":51,"w":23,"h":25,"gx":-1,"gy":-3,"gz":0}]}}